*** Darwin 3x22 ***
Turn = 0.
  0123456789012345678901
0 ......t....t....f.....
1 h.........t...........
2 .........r.....t......

*** Darwin 47x12 ***
Turn = 0.
  012345678901
0 ............
1 ............
2 ............
3 ............
4 ............
5 ............
6 ............
7 ............
8 ............
9 ............
0 ............
1 ............
2 ............
3 ............
4 ............
5 ............
6 ............
7 ............
8 ............
9 ............
0 ............
1 ............
2 ............
3 ............
4 ............
5 ............
6 ............
7 ............
8 ....t.......
9 ............
0 ............
1 ............
2 ............
3 ............
4 ............
5 ............
6 ............
7 ............
8 ............
9 ............
0 ............
1 ............
2 ............
3 ............
4 ............
5 ............
6 ............

Turn = 67.
  012345678901
0 ............
1 ............
2 ............
3 ............
4 ............
5 ............
6 ............
7 ............
8 ............
9 ............
0 ............
1 ............
2 ............
3 ............
4 ............
5 ............
6 ............
7 ............
8 ............
9 ............
0 ............
1 ............
2 ............
3 ............
4 ............
5 ............
6 ............
7 ............
8 ....t.......
9 ............
0 ............
1 ............
2 ............
3 ............
4 ............
5 ............
6 ............
7 ............
8 ............
9 ............
0 ............
1 ............
2 ............
3 ............
4 ............
5 ............
6 ............

Turn = 134.
  012345678901
0 ............
1 ............
2 ............
3 ............
4 ............
5 ............
6 ............
7 ............
8 ............
9 ............
0 ............
1 ............
2 ............
3 ............
4 ............
5 ............
6 ............
7 ............
8 ............
9 ............
0 ............
1 ............
2 ............
3 ............
4 ............
5 ............
6 ............
7 ............
8 ....t.......
9 ............
0 ............
1 ............
2 ............
3 ............
4 ............
5 ............
6 ............
7 ............
8 ............
9 ............
0 ............
1 ............
2 ............
3 ............
4 ............
5 ............
6 ............

*** Darwin 30x37 ***
Turn = 0.
  0123456789012345678901234567890123456
0 .....................................
1 .....................................
2 .....................................
3 ..........t..........................
4 .....................................
5 .....................................
6 .....................................
7 .....................................
8 .....................................
9 .....................................
0 .....................................
1 .....................................
2 .....................................
3 .....................................
4 .................h...r...............
5 .....................................
6 ..........................f..........
7 ......f..............................
8 .....................................
9 .....................................
0 .........................h...........
1 .....................................
2 .....................................
3 .....................................
4 .....................................
5 .....................................
6 .....................................
7 .....................................
8 .....................................
9 .....................................

*** Darwin 14x11 ***
Turn = 0.
  01234567890
0 ...........
1 ...........
2 ...h.......
3 .....t.....
4 ...........
5 ...........
6 ...........
7 ...........
8 ...........
9 ...........
0 ...........
1 .......t.r.
2 ...........
3 .....f.....

Turn = 3.
  01234567890
0 ...h.......
1 ...........
2 ...........
3 .....t.....
4 ...........
5 ...........
6 ...........
7 ...........
8 ...........
9 ...........
0 ...........
1 .......t...
2 ...........
3 .....f...r.

Turn = 6.
  01234567890
0 ...h.......
1 ...........
2 ...........
3 .....t.....
4 ...........
5 ...........
6 ...........
7 ...........
8 ...........
9 ...........
0 ...........
1 .......t...
2 ...........
3 .....fr....

Turn = 9.
  01234567890
0 ...h.......
1 ...........
2 ...........
3 .....t.....
4 ...........
5 ...........
6 ...........
7 ...........
8 ...........
9 ...........
0 ...........
1 .......t...
2 ...........
3 ...rr......

Turn = 12.
  01234567890
0 ...h.......
1 ...........
2 ...........
3 .....t.....
4 ...........
5 ...........
6 ...........
7 ...........
8 ...........
9 ...........
0 ...........
1 .......t...
2 ...........
3 rr.........

Turn = 15.
  01234567890
0 ...h.......
1 ...........
2 ...........
3 .....t.....
4 ...........
5 ...........
6 ...........
7 ...........
8 ...........
9 ...........
0 ...........
1 .r.....t...
2 ...........
3 r..........

Turn = 18.
  01234567890
0 ...h.......
1 ...........
2 ...........
3 .....t.....
4 ...........
5 ...........
6 ...........
7 ...........
8 .r.........
9 ...........
0 r..........
1 .......t...
2 ...........
3 ...........

Turn = 21.
  01234567890
0 ...h.......
1 ...........
2 ...........
3 .....t.....
4 ...........
5 .r.........
6 ...........
7 r..........
8 ...........
9 ...........
0 ...........
1 .......t...
2 ...........
3 ...........

Turn = 24.
  01234567890
0 ...h.......
1 ...........
2 .r.........
3 .....t.....
4 r..........
5 ...........
6 ...........
7 ...........
8 ...........
9 ...........
0 ...........
1 .......t...
2 ...........
3 ...........

Turn = 27.
  01234567890
0 .r.h.......
1 r..........
2 ...........
3 .....t.....
4 ...........
5 ...........
6 ...........
7 ...........
8 ...........
9 ...........
0 ...........
1 .......t...
2 ...........
3 ...........

Turn = 30.
  01234567890
0 r.rr.......
1 ...........
2 ...........
3 .....t.....
4 ...........
5 ...........
6 ...........
7 ...........
8 ...........
9 ...........
0 ...........
1 .......t...
2 ...........
3 ...........

Turn = 33.
  01234567890
0 ..r........
1 ...........
2 ...........
3 ..rr.t.....
4 ...........
5 ...........
6 ...........
7 ...........
8 ...........
9 ...........
0 ...........
1 .......t...
2 ...........
3 ...........

Turn = 36.
  01234567890
0 .....r.....
1 ...........
2 ...........
3 .....t.....
4 ...........
5 ...........
6 ..rr.......
7 ...........
8 ...........
9 ...........
0 ...........
1 .......t...
2 ...........
3 ...........

Turn = 39.
  01234567890
0 ........r..
1 ...........
2 ...........
3 .....t.....
4 ...........
5 ...........
6 ...........
7 ...........
8 ...........
9 ..rr.......
0 ...........
1 .......t...
2 ...........
3 ...........

Turn = 42.
  01234567890
0 ..........r
1 ...........
2 ...........
3 .....t.....
4 ...........
5 ...........
6 ...........
7 ...........
8 ...........
9 ...........
0 ...........
1 .......t...
2 ..rr.......
3 ...........

Turn = 45.
  01234567890
0 ...........
1 ..........r
2 ...........
3 .....t.....
4 ...........
5 ...........
6 ...........
7 ...........
8 ...........
9 ...........
0 ...........
1 .......t...
2 ...........
3 ..r.r......

Turn = 48.
  01234567890
0 ...........
1 ...........
2 ...........
3 .....t.....
4 ..........r
5 ...........
6 ...........
7 ...........
8 ...........
9 ...........
0 ..r........
1 .......t...
2 ...........
3 .......r...

Turn = 51.
  01234567890
0 ...........
1 ...........
2 ...........
3 .....t.....
4 ...........
5 ...........
6 ...........
7 ..r.......r
8 ...........
9 ...........
0 ...........
1 .......t...
2 ...........
3 ..........r

Turn = 54.
  01234567890
0 ...........
1 ...........
2 ...........
3 .....t.....
4 ..r........
5 ...........
6 ...........
7 ...........
8 ...........
9 ...........
0 ..........r
1 .......t..r
2 ...........
3 ...........

Turn = 57.
  01234567890
0 ...........
1 ..r........
2 ...........
3 .....t.....
4 ...........
5 ...........
6 ...........
7 ...........
8 ...........
9 ..........r
0 ...........
1 .......t...
2 ..........r
3 ...........

Turn = 60.
  01234567890
0 ...r.......
1 ...........
2 ...........
3 .....t.....
4 ...........
5 ...........
6 ..........r
7 ...........
8 ...........
9 ...........
0 ...........
1 .......t...
2 ...........
3 ..........r

Turn = 63.
  01234567890
0 ......r....
1 ...........
2 ...........
3 .....t....r
4 ...........
5 ...........
6 ...........
7 ...........
8 ...........
9 ...........
0 ..........r
1 .......t...
2 ...........
3 ...........

Turn = 66.
  01234567890
0 .........rr
1 ...........
2 ...........
3 .....t.....
4 ...........
5 ...........
6 ...........
7 ..........r
8 ...........
9 ...........
0 ...........
1 .......t...
2 ...........
3 ...........

Turn = 69.
  01234567890
0 .........r.
1 ..........r
2 ...........
3 .....t.....
4 ..........r
5 ...........
6 ...........
7 ...........
8 ...........
9 ...........
0 ...........
1 .......t...
2 ...........
3 ...........

Turn = 72.
  01234567890
0 ...........
1 ...........
2 ..........r
3 .....t...rr
4 ...........
5 ...........
6 ...........
7 ...........
8 ...........
9 ...........
0 ...........
1 .......t...
2 ...........
3 ...........

Turn = 75.
  01234567890
0 ..........r
1 ..........r
2 ...........
3 .....t.....
4 ...........
5 ...........
6 .........r.
7 ...........
8 ...........
9 ...........
0 ...........
1 .......t...
2 ...........
3 ...........

Turn = 78.
  01234567890
0 .........r.
1 ...........
2 ...........
3 .....t....r
4 ...........
5 ...........
6 ...........
7 ...........
8 ...........
9 .........r.
0 ...........
1 .......t...
2 ...........
3 ...........

Turn = 81.
  01234567890
0 ......r....
1 ...........
2 ...........
3 .....t.....
4 ...........
5 ...........
6 ..........r
7 ...........
8 ...........
9 ...........
0 ...........
1 .......t...
2 .........r.
3 ...........

Turn = 84.
  01234567890
0 ...r.......
1 ...........
2 ...........
3 .....t.....
4 ...........
5 ...........
6 ...........
7 ...........
8 ...........
9 ..........r
0 ...........
1 .......t...
2 ...........
3 ........r..

Turn = 87.
  01234567890
0 r..........
1 ...........
2 ...........
3 .....t.....
4 ...........
5 ...........
6 ...........
7 ...........
8 ...........
9 ...........
0 ...........
1 .......t...
2 ..........r
3 .....r.....

Turn = 90.
  01234567890
0 .r.........
1 ...........
2 ...........
3 .....t.....
4 ...........
5 ...........
6 ...........
7 ...........
8 ...........
9 ...........
0 ...........
1 .......t...
2 ...........
3 ..r......r.

Turn = 93.
  01234567890
0 ....r......
1 ...........
2 ...........
3 .....t.....
4 ...........
5 ...........
6 ...........
7 ...........
8 ...........
9 ...........
0 ...........
1 .......t...
2 ...........
3 r.....r....

Turn = 96.
  01234567890
0 .......r...
1 ...........
2 ...........
3 .....t.....
4 ...........
5 ...........
6 ...........
7 ...........
8 ...........
9 ...........
0 ...........
1 .......t...
2 ...........
3 r..r.......

Turn = 99.
  01234567890
0 ..........r
1 ...........
2 ...........
3 .....t.....
4 ...........
5 ...........
6 ...........
7 ...........
8 ...........
9 ...........
0 ...........
1 .......t...
2 ...........
3 .rr........

Turn = 102.
  01234567890
0 ...........
1 ...........
2 ..........r
3 .....t.....
4 ...........
5 ...........
6 ...........
7 ...........
8 ...........
9 ...........
0 ...........
1 .......t...
2 ...........
3 r....r.....

Turn = 105.
  01234567890
0 ...........
1 ...........
2 ...........
3 .....t.....
4 ...........
5 ..........r
6 ...........
7 ...........
8 ...........
9 ...........
0 ...........
1 .......t...
2 ...........
3 ...r....r..

*** Darwin 17x43 ***
Turn = 0.
  0123456789012345678901234567890123456789012
0 ...........................................
1 ...........................................
2 ...............................h...........
3 ...........................................
4 ...........................................
5 ...........................................
6 ...........................................
7 ...........................................
8 .......f...................................
9 ...........................................
0 ...........................................
1 ...........................................
2 ........................................f..
3 ...........................................
4 ...........................................
5 ...........................................
6 ...........................................

*** Darwin 14x34 ***
Turn = 0.
  0123456789012345678901234567890123
0 ..................................
1 .................t................
2 ..................................
3 ..................................
4 ...........................f......
5 .f................................
6 .......f..........................
7 ..................................
8 ..................................
9 ..........f.............r.........
0 ..t...............................
1 ..................................
2 .......................r..........
3 ..................................

Turn = 84.
  0123456789012345678901234567890123
0 .r................................
1 .................t................
2 ..................................
3 ..................................
4 ...........................f......
5 .....r............................
6 .......f..........................
7 ..................................
8 ..................................
9 ..........f.......................
0 ..t...............................
1 r.................................
2 ..................................
3 ..................................

Turn = 168.
  0123456789012345678901234567890123
0 r.................................
1 .................t................
2 ..................................
3 ..................................
4 ...........................f......
5 ..................................
6 r......f..........................
7 r.................................
8 ..................................
9 ..................................
0 ..t...............................
1 ..................................
2 ..................................
3 ........................r.........

*** Darwin 44x1 ***
Turn = 0.
  0
0 .
1 .
2 f
3 .
4 .
5 .
6 .
7 .
8 .
9 .
0 .
1 .
2 .
3 .
4 .
5 .
6 .
7 .
8 .
9 .
0 .
1 .
2 .
3 .
4 .
5 .
6 .
7 .
8 .
9 .
0 r
1 .
2 .
3 .
4 .
5 .
6 .
7 .
8 .
9 .
0 .
1 .
2 .
3 .

*** Darwin 30x23 ***
Turn = 0.
  01234567890123456789012
0 .......................
1 .h.....................
2 .......................
3 .......................
4 .......................
5 .......................
6 .......................
7 .......................
8 .......................
9 .......................
0 .......................
1 .......................
2 .......................
3 .......................
4 .......................
5 .......................
6 .......................
7 .......................
8 .......................
9 .......................
0 .......................
1 .......................
2 .......................
3 .......................
4 .......................
5 .......................
6 .......................
7 .......................
8 .......................
9 .......................

Turn = 82.
  01234567890123456789012
0 .......................
1 .......................
2 .......................
3 .......................
4 .......................
5 .......................
6 .......................
7 .......................
8 .......................
9 .......................
0 .......................
1 .......................
2 .......................
3 .......................
4 .......................
5 .......................
6 .......................
7 .......................
8 .......................
9 .......................
0 .......................
1 .......................
2 .......................
3 .......................
4 .......................
5 .......................
6 .......................
7 .......................
8 .......................
9 .h.....................

Turn = 164.
  01234567890123456789012
0 .......................
1 .......................
2 .......................
3 .......................
4 .......................
5 .......................
6 .......................
7 .......................
8 .......................
9 .......................
0 .......................
1 .......................
2 .......................
3 .......................
4 .......................
5 .......................
6 .......................
7 .......................
8 .......................
9 .......................
0 .......................
1 .......................
2 .......................
3 .......................
4 .......................
5 .......................
6 .......................
7 .......................
8 .......................
9 .h.....................

*** Darwin 46x20 ***
Turn = 0.
  01234567890123456789
0 ....................
1 ....................
2 ..................t.
3 ....................
4 ....................
5 ....................
6 ....................
7 ....................
8 ....................
9 ....................
0 ....................
1 ....................
2 ....................
3 ....................
4 ....................
5 ................f...
6 ....................
7 ....................
8 ....................
9 ....................
0 ....................
1 ....................
2 ....................
3 ....................
4 ....................
5 ....................
6 ....................
7 ....................
8 ....................
9 ................f...
0 ......h.............
1 ....................
2 ....................
3 ....................
4 ....................
5 ....................
6 ....................
7 ....................
8 .t..................
9 ....................
0 ....................
1 ....................
2 ....................
3 ....................
4 ....................
5 ....................

Turn = 69.
  01234567890123456789
0 ......h.............
1 ....................
2 ..................t.
3 ....................
4 ....................
5 ....................
6 ....................
7 ....................
8 ....................
9 ....................
0 ....................
1 ....................
2 ....................
3 ....................
4 ....................
5 ................f...
6 ....................
7 ....................
8 ....................
9 ....................
0 ....................
1 ....................
2 ....................
3 ....................
4 ....................
5 ....................
6 ....................
7 ....................
8 ....................
9 ................f...
0 ....................
1 ....................
2 ....................
3 ....................
4 ....................
5 ....................
6 ....................
7 ....................
8 .t..................
9 ....................
0 ....................
1 ....................
2 ....................
3 ....................
4 ....................
5 ....................

*** Darwin 33x27 ***
Turn = 0.
  012345678901234567890123456
0 ...........................
1 ...........................
2 .............h.............
3 ...........................
4 ...........................
5 ...........................
6 ...........................
7 ...........................
8 ...........................
9 ...........................
0 ...........................
1 ...........................
2 ...h.......................
3 ...........................
4 ...........................
5 ...........................
6 ...........................
7 ...........................
8 ...........................
9 ...........................
0 ...........................
1 ............r..............
2 ...........................
3 ...........................
4 ...................r.......
5 ...........................
6 ...........................
7 ...........................
8 ...........................
9 ...........................
0 ............h..............
1 ...........................
2 ...........................

*** Darwin 26x28 ***
Turn = 0.
  0123456789012345678901234567
0 ............................
1 ..........t.................
2 ............................
3 ............................
4 ............................
5 ..........f.r...............
6 ............................
7 ............................
8 ............................
9 ............................
0 ............................
1 ............................
2 ............................
3 ........t...................
4 ............................
5 ............................
6 ............................
7 ............................
8 ............................
9 .......................r....
0 ............................
1 ............................
2 ............................
3 ...............f............
4 ............................
5 ............................

*** Darwin 3x49 ***
Turn = 0.
  0123456789012345678901234567890123456789012345678
0 .....................................r...........
1 .................................................
2 ......................h................f.........

*** Darwin 1x35 ***
Turn = 0.
  01234567890123456789012345678901234
0 ...................r...............

*** Darwin 6x15 ***
Turn = 0.
  012345678901234
0 .......t.......
1 ........t....h.
2 .....r..r....r.
3 .............r.
4 ...r...........
5 h..............

Turn = 79.
  012345678901234
0 ........r......
1 ........tt.....
2 ...............
3 ...............
4 ...............
5 rrrr........rr.

*** Darwin 2x37 ***
Turn = 0.
  0123456789012345678901234567890123456
0 ........hh...........................
1 ....h................................

Turn = 116.
  0123456789012345678901234567890123456
0 hh...................................
1 ....................................h

*** Darwin 31x3 ***
Turn = 0.
  012
0 ...
1 ...
2 ...
3 ...
4 ...
5 ...
6 ...
7 ...
8 ..t
9 h..
0 ...
1 ...
2 ...
3 ...
4 ...
5 ...
6 ...
7 ...
8 ...
9 h..
0 ...
1 ...
2 ...
3 ..r
4 ..t
5 ...
6 ...
7 .f.
8 .t.
9 ...
0 ...

Turn = 178.
  012
0 h..
1 ...
2 ...
3 ...
4 ...
5 ...
6 ...
7 ...
8 ..t
9 ...
0 ...
1 ...
2 ...
3 ...
4 ...
5 ...
6 ...
7 ...
8 ...
9 ...
0 ...
1 ...
2 ...
3 ..t
4 ..t
5 ...
6 ...
7 .t.
8 .t.
9 ...
0 h..

*** Darwin 1x36 ***
Turn = 0.
  012345678901234567890123456789012345
0 ....h...t.....r....t.r.f.........r.r

Turn = 61.
  012345678901234567890123456789012345
0 rr..........r........r..r......r.r.r

Turn = 122.
  012345678901234567890123456789012345
0 ..r.rr........rr..r.r..r............

*** Darwin 11x3 ***
Turn = 0.
  012
0 ...
1 ...
2 ...
3 ...
4 ...
5 ..f
6 ...
7 ..t
8 ...
9 ...
0 ...

*** Darwin 13x31 ***
Turn = 0.
  0123456789012345678901234567890
0 ...............................
1 ...............................
2 .....r.........................
3 ..f............................
4 ...............................
5 .........................f.....
6 ...............................
7 ...............................
8 ...............................
9 ....rf.........................
0 ............................r..
1 ...............................
2 ...............................

*** Darwin 34x40 ***
Turn = 0.
  0123456789012345678901234567890123456789
0 ........................................
1 ........................................
2 ......h.................................
3 ........................................
4 ........................................
5 ........................................
6 ........................................
7 ....................h.....t.............
8 ........................................
9 ........................................
0 ........................................
1 ........................................
2 ........................................
3 ........................................
4 ....................................f...
5 ........................................
6 ........................................
7 ........................................
8 ........................................
9 ........................................
0 ........................................
1 ........................................
2 ........................................
3 ........................................
4 ..........r.............................
5 ........................................
6 ........................................
7 ........................................
8 ........................................
9 ........................................
0 ........................................
1 ..............................t.........
2 ........................................
3 ...............................f........

*** Darwin 8x43 ***
Turn = 0.
  0123456789012345678901234567890123456789012
0 ...........................................
1 ...........................................
2 .....t.....................................
3 ...........................................
4 ...........................................
5 ...........................................
6 ...........................................
7 ...........................................

Turn = 19.
  0123456789012345678901234567890123456789012
0 ...........................................
1 ...........................................
2 .....t.....................................
3 ...........................................
4 ...........................................
5 ...........................................
6 ...........................................
7 ...........................................

Turn = 38.
  0123456789012345678901234567890123456789012
0 ...........................................
1 ...........................................
2 .....t.....................................
3 ...........................................
4 ...........................................
5 ...........................................
6 ...........................................
7 ...........................................

*** Darwin 50x16 ***
Turn = 0.
  0123456789012345
0 ................
1 ................
2 ................
3 ................
4 ................
5 ..............f.
6 ................
7 ................
8 ................
9 ................
0 ................
1 ................
2 ................
3 ................
4 ................
5 ................
6 ................
7 ................
8 ................
9 ................
0 ................
1 ................
2 ................
3 ................
4 ................
5 ................
6 ................
7 ................
8 ................
9 ................
0 ................
1 ................
2 ................
3 ................
4 ................
5 ................
6 ................
7 ................
8 ................
9 ................
0 ................
1 ................
2 ................
3 ................
4 ................
5 ................
6 ................
7 ................
8 ................
9 ................

*** Darwin 16x19 ***
Turn = 0.
  0123456789012345678
0 ...................
1 ..................t
2 ...................
3 ...................
4 .t.................
5 ................r..
6 ...................
7 ...................
8 ...................
9 ...................
0 ....f..............
1 ...................
2 ............h......
3 ...................
4 ..........fr.......
5 ...................

*** Darwin 14x28 ***
Turn = 0.
  0123456789012345678901234567
0 ............................
1 ............................
2 ......................h.....
3 ..........h.................
4 ............................
5 ............................
6 .......................h....
7 .........................f..
8 ............f...............
9 ............................
0 ............................
1 ............................
2 ...................f.......f
3 ......t.....................
